^C:\DOCUMENTS AND SETTINGS\VIVEK\DESKTOP\RANDOMIZER-II\FORM1.RESX|C:\DOCUMENTS AND SETTINGS\VIVEK\DESKTOP\RANDOMIZER-II\PROPERTIES\RESOURCES.RESX
C:\DOCUMENTS AND SETTINGS\VIVEK\DESKTOP\RANDOMIZER-II\OBJ\X86\RELEASE\RANDOMIZER.FORM1.RESOURCES
C:\DOCUMENTS AND SETTINGS\VIVEK\DESKTOP\RANDOMIZER-II\OBJ\X86\RELEASE\RANDOMIZER.PROPERTIES.RESOURCES.RESOURCES
